{
    "key": "4",
    "ash": {
        "x": 8000,
        "y": 2000
    },
    "humans": [
        {
            "x": 8000,
            "y": 4500
        }
    ],
    "zombies": [
        {
            "x": 2000,
            "y": 6500
        },
        {
            "x": 14000,
            "y": 6500
        }
    ]
}