{
    "key": "8",
    "ash": {
        "x": 0,
        "y": 4000
    },
    "humans": [
        {
            "x": 0,
            "y": 1000
        },
        {
            "x": 0,
            "y": 8000
        }
    ],
    "zombies": [
        {
            "x": 3000,
            "y": 1000
        },
        {
            "x": 3000,
            "y": 8000
        },
        {
            "x": 4000,
            "y": 1000
        },
        {
            "x": 4000,
            "y": 8000
        },
        {
            "x": 5000,
            "y": 1000
        },
        {
            "x": 5000,
            "y": 8000
        },
        {
            "x": 7000,
            "y": 1000
        },
        {
            "x": 7000,
            "y": 8000
        },
        {
            "x": 9000,
            "y": 1000
        },
        {
            "x": 9000,
            "y": 8000
        },
        {
            "x": 11000,
            "y": 1000
        },
        {
            "x": 11000,
            "y": 8000
        },
        {
            "x": 13000,
            "y": 1000
        },
        {
            "x": 13000,
            "y": 8000
        },
        {
            "x": 14000,
            "y": 1000
        },
        {
            "x": 14000,
            "y": 8000
        },
        {
            "x": 14500,
            "y": 1000
        },
        {
            "x": 14500,
            "y": 8000
        },
        {
            "x": 15000,
            "y": 1000
        },
        {
            "x": 15000,
            "y": 8000
        }
    ]
}