{
    "key": "17",
    "ash": {
        "x": 3989,
        "y": 3259
    },
    "humans": [
        {
            "x": 3647,
            "y": 384
        },
        {
            "x": 60,
            "y": 3262
        },
        {
            "x": 2391,
            "y": 1601
        },
        {
            "x": 2363,
            "y": 3422
        }
    ],
    "zombies": [
        {
            "x": 6485,
            "y": 499
        },
        {
            "x": 7822,
            "y": 446
        },
        {
            "x": 9202,
            "y": 826
        },
        {
            "x": 11060,
            "y": 253
        },
        {
            "x": 12568,
            "y": 808
        },
        {
            "x": 14148,
            "y": 650
        },
        {
            "x": 6571,
            "y": 1893
        },
        {
            "x": 8484,
            "y": 2013
        },
        {
            "x": 9669,
            "y": 1968
        },
        {
            "x": 7570,
            "y": 3338
        },
        {
            "x": 9780,
            "y": 3611
        },
        {
            "x": 8360,
            "y": 4767
        },
        {
            "x": 9804,
            "y": 4154
        },
        {
            "x": 10935,
            "y": 4977
        },
        {
            "x": 12310,
            "y": 4614
        },
        {
            "x": 13891,
            "y": 4302
        },
        {
            "x": 913,
            "y": 5636
        },
        {
            "x": 2410,
            "y": 5912
        },
        {
            "x": 3952,
            "y": 6143
        },
        {
            "x": 4615,
            "y": 5995
        },
        {
            "x": 6568,
            "y": 6085
        },
        {
            "x": 8204,
            "y": 5579
        },
        {
            "x": 9049,
            "y": 5470
        },
        {
            "x": 30,
            "y": 6798
        },
        {
            "x": 1798,
            "y": 6682
        },
        {
            "x": 3247,
            "y": 7664
        },
        {
            "x": 5005,
            "y": 7319
        },
        {
            "x": 6415,
            "y": 7094
        },
        {
            "x": 8159,
            "y": 7447
        },
        {
            "x": 9550,
            "y": 6847
        }
    ]
}